{
  "WorkItem": {
    "AffectedComponent": {
      "Name": "",
      "DisplayName": ""
    },
    "ClosedComment": "",
    "ClosedDate": "2014-01-05T09:51:17.487-08:00",
    "CommentCount": 0,
    "Custom": null,
    "Description": "Everything seems to be working great in version 2.1.4 thanks mate! However I am missing the trailer tag in the XML... could you please fix this because I love being able to view the trailer from my WDTV! Thanks for everything!",
    "LastUpdatedDate": "2014-01-05T09:51:17.487-08:00",
    "PlannedForRelease": "",
    "ReleaseVisibleToPublic": false,
    "Priority": {
      "Name": "Unassigned",
      "Severity": 0,
      "Id": 0
    },
    "ProjectName": "wdtvhubgen",
    "ReportedDate": "2013-09-29T18:53:54.91-07:00",
    "Status": {
      "Name": "Closed",
      "Id": 4
    },
    "ReasonClosed": {
      "Name": "Fixed"
    },
    "Summary": "No Trailer Tag in the XML",
    "Type": {
      "Name": "Unassigned",
      "Id": 5
    },
    "VoteCount": 1,
    "Id": 2917
  },
  "FileAttachments": [],
  "Comments": [
    {
      "Message": "I finally found and added trailers back into the mix. I just put in the \"first\" trailer that is returned, several are returned. in later versions I'll figure out a way to put them all in and see how WDTV handles it.  Thanks!\n",
      "PostedDate": "2014-01-05T09:51:09.933-08:00",
      "Id": -2147483648
    },
    {
      "Message": "",
      "PostedDate": "2014-01-05T09:51:17.487-08:00",
      "Id": -2147483648
    }
  ]
}