{
  "WorkItem": {
    "AffectedComponent": {
      "Name": "",
      "DisplayName": ""
    },
    "ClosedComment": "",
    "ClosedDate": null,
    "CommentCount": 0,
    "Custom": null,
    "Description": "Under Options - Logging and Errors: If I set \"Verbose Error Reporting and Logging\" to \"none\", the value is ignored. The program continues to log anyway during same session, and the value is not saved between sessions.\n \nFurthermore, the log appears to grow large rapidly and may not have a maximum file size. Further even more, the program writes the log to C:\\temp, a folder which is inappropriate on the windows platform. (http://technet.microsoft.com/en-us/library/dd560744%28WS.10%29.aspx mentions temp folder at bottom).",
    "LastUpdatedDate": "2013-02-21T16:49:22.973-08:00",
    "PlannedForRelease": "",
    "ReleaseVisibleToPublic": false,
    "Priority": {
      "Name": "Low",
      "Severity": 50,
      "Id": 1
    },
    "ProjectName": "wdtvhubgen",
    "ReportedDate": "2012-01-24T21:44:12.77-08:00",
    "Status": {
      "Name": "Proposed",
      "Id": 1
    },
    "ReasonClosed": {
      "Name": "Unassigned"
    },
    "Summary": "[2.1.1] Logging and Errors - \"None\"",
    "Type": {
      "Name": "Issue",
      "Id": 3
    },
    "VoteCount": 1,
    "Id": 2450
  },
  "FileAttachments": [],
  "Comments": [
    {
      "Message": "I will test this as soon as I can, I'll get back to you on it.",
      "PostedDate": "2012-01-25T06:22:46.19-08:00",
      "Id": -2147483648
    },
    {
      "Message": "",
      "PostedDate": "2013-02-21T16:49:22.973-08:00",
      "Id": -2147483648
    }
  ]
}