{
  "WorkItem": {
    "AffectedComponent": {
      "Name": "",
      "DisplayName": ""
    },
    "ClosedComment": "",
    "ClosedDate": null,
    "CommentCount": 0,
    "Custom": null,
    "Description": "I have \"Use Original Filenames\" set to \"True\", and I use the following \"TV Title Template\":\n[%SeasonNumberNoZero%]-[%EpisodeNumber%] [%EpisodeName%]\n\nWDTVHubGen works great in retrieving info, and the thumbnails are fine.  But my Hub won't recognize the title from the xml, even after rescanning.  I can \"View Info\" successfully, and it shows it.  But it won't display it in the list.  The only way I know to fix it is to do a full \"Clear Media Library\" which completely rebuilds it.  Then everything is titled correctly using those same xml files.  Any ideas?\n\nThanks for a great tool!  I can finally batch and customize the metadata!",
    "LastUpdatedDate": "2016-03-11T08:55:40.14-08:00",
    "PlannedForRelease": "",
    "ReleaseVisibleToPublic": false,
    "Priority": {
      "Name": "Unassigned",
      "Severity": 0,
      "Id": 0
    },
    "ProjectName": "wdtvhubgen",
    "ReportedDate": "2015-11-20T11:06:21.883-08:00",
    "Status": {
      "Name": "Proposed",
      "Id": 1
    },
    "ReasonClosed": {
      "Name": "Unassigned"
    },
    "Summary": "WD TV interface doesn't use title from generated xml",
    "Type": {
      "Name": "Unassigned",
      "Id": 5
    },
    "VoteCount": 1,
    "Id": 3208
  },
  "FileAttachments": [],
  "Comments": [
    {
      "Message": "I found the solution.  Currently, <prevtitle> in the xml is populated with the file name.  When I modify this promptly to match <title>, the WDTV Live Hub shows the title.  Apparently, if the WD didn't previously have it in its media library, it uses <prevtitle> instead of <title>.\r\n\r\nWould it be easy to modify the code to always set <prevtitle> to be the same value as <title>?",
      "PostedDate": "2016-02-18T12:21:34.727-08:00",
      "Id": -2147483648
    },
    {
      "Message": "My current workaround is to use regular expressions in \"Find all files\" in Notepad++ as follows.  As long as I do it before the Hub re-scans, the title shows correctly on the Hub.\r\n\r\nFind what:\n<title>(.*)</title>\\r\\n  <mpaa\nReplace with:\n<title>$1</title>\\r\\n  <prevtitle>$1</prevtitle>\\r\\n  <mpaa\r\n\r\nFind what:\n<prevtitle>.*</prevtitle>\\r\\n  <prevgenre\nReplace with:\n<prevgenre\n",
      "PostedDate": "2016-03-11T08:55:40.14-08:00",
      "Id": -2147483648
    }
  ]
}