{
  "WorkItem": {
    "AffectedComponent": {
      "Name": "",
      "DisplayName": ""
    },
    "ClosedComment": "",
    "ClosedDate": null,
    "CommentCount": 0,
    "Custom": null,
    "Description": "Hi there, I'm getting tons of errors \"No inner exception\" when I try to get for Tv Shows.\n\nIt finish with 64 errors, from 112 movies (Tv shows actually), also I coulnd't find the debug log (yes its Verbose ON).",
    "LastUpdatedDate": "2013-09-18T12:48:43.227-07:00",
    "PlannedForRelease": "",
    "ReleaseVisibleToPublic": false,
    "Priority": {
      "Name": "Unassigned",
      "Severity": 0,
      "Id": 0
    },
    "ProjectName": "wdtvhubgen",
    "ReportedDate": "2013-07-29T10:38:04.49-07:00",
    "Status": {
      "Name": "Proposed",
      "Id": 1
    },
    "ReasonClosed": {
      "Name": "Unassigned"
    },
    "Summary": "Errors in \"LoadSeriesByID\"",
    "Type": {
      "Name": "Unassigned",
      "Id": 5
    },
    "VoteCount": 1,
    "Id": 2889
  },
  "FileAttachments": [
    {
      "FileId": 210,
      "FileName": "error1.PNG",
      "DownloadUrl": ".\\210"
    },
    {
      "FileId": 211,
      "FileName": "process.PNG",
      "DownloadUrl": ".\\211"
    }
  ],
  "Comments": [
    {
      "Message": "It would appear that theMovieDB.org API version 2.1 was discontinued as of today.\r\n\r\nThe application needs to be updated to support the v3 api.\n",
      "PostedDate": "2013-09-16T21:40:17.82-07:00",
      "Id": -2147483648
    },
    {
      "Message": "Are there commas in the file name? If so, that seems to confuse the program. I was getting a bunch of these errors as well and found it was only those files that had commas in them. Apparently it has problems parsing out the series and episode from the filename when there are commas.\r\n\r\nThe moviedb issue shouldn't have anything to do with this as the TV show portion is working just fine. ",
      "PostedDate": "2013-09-18T09:41:15.007-07:00",
      "Id": -2147483648
    },
    {
      "Message": "BTW, I confirmed this by removing the commas and it processed those episodes with no problem. Oddly, it even put them back in when it renamed the files. That is why I think it has to do with trying to find the series and episode number. It may not be the program itself, but the way the websites try to match up episodes.",
      "PostedDate": "2013-09-18T12:48:43.227-07:00",
      "Id": -2147483648
    }
  ]
}