{
  "WorkItem": {
    "AffectedComponent": {
      "Name": "",
      "DisplayName": ""
    },
    "ClosedComment": "This problem wasn&#39;t attributed to the WDTVHubGen",
    "ClosedDate": "2011-08-06T19:18:08.61-07:00",
    "CommentCount": 0,
    "Custom": null,
    "Description": "So, I just tried to run my TV Series \"Boy Meets World\" Season 1 through this tool... and instead of renaming my files, it just deleted them ALL!!!\nI was able to run my movies and a newer TV Series through with no issues. Something has got to give...\nNow I need to spend all this time re-ripping my DVD's because of this program :(",
    "LastUpdatedDate": "2013-05-16T04:02:17.2-07:00",
    "PlannedForRelease": "",
    "ReleaseVisibleToPublic": false,
    "Priority": {
      "Name": "Low",
      "Severity": 50,
      "Id": 1
    },
    "ProjectName": "wdtvhubgen",
    "ReportedDate": "2011-08-06T18:12:13.117-07:00",
    "Status": {
      "Name": "Closed",
      "Id": 4
    },
    "ReasonClosed": {
      "Name": "Unassigned"
    },
    "Summary": "WDTVHubGen Deleted files instead of renaming",
    "Type": {
      "Name": "Issue",
      "Id": 3
    },
    "VoteCount": 1,
    "Id": 2338
  },
  "FileAttachments": [],
  "Comments": [
    {
      "Message": "I am also unable to make changes to the folder, nor can I add new files to the folder anymore.\r\nWhen I try to delete the folder, I get an error stating:\r\n\"Folder Access Denied\"\r\n\"You need permission to perform this action\"\r\n\"You require permission from Unix User\\root to make changes to this folder\"",
      "PostedDate": "2011-08-06T18:40:54.42-07:00",
      "Id": -2147483648
    },
    {
      "Message": "Nevermind... it appears that my WDTV unit decided to have a mind of it's own.\r\nI had to pull the power plug on my WDTV unit, then power it back up.\r\nUpon booting, I could see the files again, but could not access them.\r\nI was able to copy the files into a new folder via the WDTV interface and then deleted the problem folder/files.\r\nI'm not quite sure what made me lose permissions to the files/folders... but it seems like the WDTV unit might be at fault for this issue.",
      "PostedDate": "2011-08-06T19:14:31.983-07:00",
      "Id": -2147483648
    },
    {
      "Message": "Whew! i logged in after reading your first issue, glad it worked (first update).  I have seen some permissions issues with files shares and WDTV, i'm not sure why but even on my system occasionally i have to log in as a root user and re-grant the system permissions.  my program can't change permissions, nor does it ever try to.   Good Luck, wish I could help more.",
      "PostedDate": "2011-08-06T19:17:34.347-07:00",
      "Id": -2147483648
    },
    {
      "Message": "",
      "PostedDate": "2011-08-06T19:18:08.61-07:00",
      "Id": -2147483648
    },
    {
      "Message": "",
      "PostedDate": "2013-02-21T16:49:24.913-08:00",
      "Id": -2147483648
    },
    {
      "Message": "",
      "PostedDate": "2013-05-16T04:02:17.2-07:00",
      "Id": -2147483648
    }
  ]
}