{
  "WorkItem": {
    "AffectedComponent": {
      "Name": "",
      "DisplayName": ""
    },
    "ClosedComment": "",
    "ClosedDate": null,
    "CommentCount": 0,
    "Custom": null,
    "Description": "I have used WDTV Live hubgen for several years now,  and I have tried to upgrade to any of the versions above V2.3 and now when I start it,  I get a Microsoft .NET framework error box with \"The remote name could not be resolved\".  I can hit continue, and hubgen will start, but the options page is completely blank,  and any movies or tv edpisodes I try to get information on,  gives a crash.  Is there something else I need to install to get these versions to work?",
    "LastUpdatedDate": "2014-07-26T19:50:37.947-07:00",
    "PlannedForRelease": "",
    "ReleaseVisibleToPublic": false,
    "Priority": {
      "Name": "Unassigned",
      "Severity": 0,
      "Id": 0
    },
    "ProjectName": "wdtvhubgen",
    "ReportedDate": "2014-04-24T18:38:05.41-07:00",
    "Status": {
      "Name": "Proposed",
      "Id": 1
    },
    "ReasonClosed": {
      "Name": "Unassigned"
    },
    "Summary": "V2.3.1",
    "Type": {
      "Name": "Unassigned",
      "Id": 5
    },
    "VoteCount": 2,
    "Id": 3038
  },
  "FileAttachments": [
    {
      "FileId": 241,
      "FileName": "Debug_NetFramework Error.txt",
      "DownloadUrl": ".\\241"
    }
  ],
  "Comments": [
    {
      "Message": "I have also been having this issue now for a couple of months, very likely to have been an update from MS for the Netframework. Maybe its a 64bit issue.\nAnyway I have attached the debug information for assesment.\nThanks for a great program.",
      "PostedDate": "2014-05-06T03:07:53.17-07:00",
      "Id": -2147483648
    },
    {
      "Message": "",
      "PostedDate": "2014-07-26T19:50:37.947-07:00",
      "Id": -2147483648
    }
  ]
}