{
  "WorkItem": {
    "AffectedComponent": {
      "Name": "",
      "DisplayName": ""
    },
    "ClosedComment": "",
    "ClosedDate": null,
    "CommentCount": 0,
    "Custom": null,
    "Description": "It would be practical that you could define multiple templates for par example a TV show file name because there are two very common ways to include the episode info in a file name:\n \n- The one that is the default one in WDTVHubGen now: [SeriesName] [Season]x[Episode]\n- Another common one: [SeriesName] S[Season]E[Episode]\n \nIt would be practicel if WDTVHubGen tries both, so you don't need to switch...",
    "LastUpdatedDate": "2013-02-21T16:49:26.783-08:00",
    "PlannedForRelease": "",
    "ReleaseVisibleToPublic": false,
    "Priority": {
      "Name": "Low",
      "Severity": 50,
      "Id": 1
    },
    "ProjectName": "wdtvhubgen",
    "ReportedDate": "2011-04-17T02:49:10.13-07:00",
    "Status": {
      "Name": "Proposed",
      "Id": 1
    },
    "ReasonClosed": {
      "Name": "Unassigned"
    },
    "Summary": "Make file name templates a stringarray",
    "Type": {
      "Name": "Issue",
      "Id": 3
    },
    "VoteCount": 1,
    "Id": 2072
  },
  "FileAttachments": [],
  "Comments": [
    {
      "Message": "Not sure I understand what you asking for? are you asking for templates on their way IN (parsing them prior to renaming) or the OUT templates (how they are renamed)\r\nthanks\r\n",
      "PostedDate": "2011-04-17T12:31:38.903-07:00",
      "Id": -2147483648
    },
    {
      "Message": "I was wrong, I was asking for different templates on their way in... because the format S01E01 didn't seem to work, but when I tried again this is working anyway...\r\n\r\nSo just drop this one...",
      "PostedDate": "2011-04-25T02:37:08.1-07:00",
      "Id": -2147483648
    },
    {
      "Message": "",
      "PostedDate": "2013-02-21T16:49:26.783-08:00",
      "Id": -2147483648
    }
  ]
}