{
  "WorkItem": {
    "AffectedComponent": {
      "Name": "",
      "DisplayName": ""
    },
    "ClosedComment": "",
    "ClosedDate": null,
    "CommentCount": 0,
    "Custom": null,
    "Description": "Three Fugitives (1989) will not display jpeg same for previous releases, it will not display proper jpeg and it automatically saves previous found movie every time , just tested it again. No error displayed \n\nAny time there is a \"&\" in the title of a movie or TV series , the xml is created with a \"& amp;\" i have already reported this bug in the previous releases and current.\n\nWhen i get a error with this release and the past 3 alpha releases, it tells me my Date and Time isn't valid .\nor the error is Null. if there is a way for me to submit the error report i will be more than happy to help this great little app . \n\nThank you for your time and maintenance of everyone favorite movie app!\n\nBrian",
    "LastUpdatedDate": "2014-01-05T09:28:12.91-08:00",
    "PlannedForRelease": "",
    "ReleaseVisibleToPublic": false,
    "Priority": {
      "Name": "Unassigned",
      "Severity": 0,
      "Id": 0
    },
    "ProjectName": "wdtvhubgen",
    "ReportedDate": "2013-10-13T12:58:22.163-07:00",
    "Status": {
      "Name": "Proposed",
      "Id": 1
    },
    "ReasonClosed": {
      "Name": "Unassigned"
    },
    "Summary": "WDTVHubGen.v2.1.6.maint",
    "Type": {
      "Name": "Unassigned",
      "Id": 5
    },
    "VoteCount": 1,
    "Id": 2926
  },
  "FileAttachments": [],
  "Comments": [
    {
      "Message": "Are you in a non US country? with the settings set to en?",
      "PostedDate": "2013-10-13T16:08:23.883-07:00",
      "Id": -2147483648
    },
    {
      "Message": "No, Im in the US  Texas . setting set to en = english yes ",
      "PostedDate": "2013-10-13T16:53:29.923-07:00",
      "Id": -2147483648
    },
    {
      "Message": "shoot. I'll trouble shoot and see what I can learn.  thanks.",
      "PostedDate": "2013-10-14T10:55:52.07-07:00",
      "Id": -2147483648
    },
    {
      "Message": "does this issue still occur with latest release?",
      "PostedDate": "2014-01-05T09:28:12.91-08:00",
      "Id": -2147483648
    }
  ]
}