[
  {
    "Id": "646220",
    "ThreadId": "266235",
    "Html": "\r\n<p>Would it be possible to add a function to manually edit the metadata and add own cover.jpg when movies can not be found.</p>\r\n<p>Would it be possible to crate a setting to use another moviedatabase to look up the data?</p>\r\n<p>&nbsp;</p>\r\n<p>Best regards Peter</p>\r\n",
    "PostedDate": "2011-07-22T10:05:54.547-07:00",
    "UserRole": null,
    "MarkedAsAnswerDate": null
  },
  {
    "Id": "694387",
    "ThreadId": "266235",
    "Html": "<p>It would also be nice to have a \"manual\" mode so that we could browse to select the season/episode of a TV series.<br />If an episode was not found, it would be nice to be prompted to do a manual lookup.</p>\r\n<p>Eagerly waiting for the WDTVHubGen v2.1 release and new features! :)</p>",
    "PostedDate": "2011-11-05T22:23:50.59-07:00",
    "UserRole": null,
    "MarkedAsAnswerDate": null
  }
]