[
  {
    "Id": "809713",
    "ThreadId": "348439",
    "Html": "\r\n<div id=\"messagebodydisplay_0\">\r\n<div>\r\n<p>The synopsis of the movie get's stuck on only one line scrolling very fast on Live Gen3.</p>\r\n<p>Anyone more has experienced this?</p>\r\n<p>Any solution for this?</p>\r\n</div>\r\n</div>\r\n",
    "PostedDate": "2012-03-13T09:17:32.403-07:00",
    "UserRole": null,
    "MarkedAsAnswerDate": null
  },
  {
    "Id": "825409",
    "ThreadId": "348439",
    "Html": "<p>I am also experiencing this issue and would love to know of a solution! The backdrop and thumbnail images work perfectly, but the description just goes crazy, almost like it is on crack or something. Its a pretty big flaw for what is a otherwise fantastic program for someone with way too many files (3TB's worth on n external drive) to use the Media Library on the WDTVLive Gen3 itself and don't want to use custom firmware... please someone help!!! If I can get this resolved then WDTVHubGen would be perfect!</p>",
    "PostedDate": "2012-04-18T06:43:58.14-07:00",
    "UserRole": null,
    "MarkedAsAnswerDate": null
  },
  {
    "Id": "835117",
    "ThreadId": "348439",
    "Html": "<p>I thought I sent a note about this, but if someone can send me the xml file for a movie that is showing this problem I'll check it out and try to fix it.</p>\r\n<p>I dont have a gen3, so hard to test</p>\r\n<p>Jeff</p>",
    "PostedDate": "2012-05-11T06:50:39.777-07:00",
    "UserRole": null,
    "MarkedAsAnswerDate": null
  },
  {
    "Id": "835297",
    "ThreadId": "348439",
    "Html": "<blockquote style=\"border: solid .1em #ccc; font-style: italic; margin: .25em 1em 0 1em; padding: 0 .25em 0 .25em;\"><strong>noslack913 wrote:</strong><br />\n<p>I thought I sent a note about this, but if someone can send me the xml file for a movie that is showing this problem I'll check it out and try to fix it.</p>\n<p>I dont have a gen3, so hard to test</p>\n<p>Jeff</p>\n</blockquote>\n<p>Here is one</p>\n<p>&nbsp;</p>\n<p>&lt;?xml version=\"1.0\" encoding=\"utf-8\"?&gt;<br />&lt;details&gt;<br />&nbsp; &lt;title&gt;10 Things I Hate About You (1999)&lt;/title&gt;<br />&nbsp; &lt;mpaa&gt;PG-13&lt;/mpaa&gt;<br />&nbsp; &lt;year&gt;1999-03-31&lt;/year&gt;<br />&nbsp; &lt;firstaired&gt;1999-03-31&lt;/firstaired&gt;<br />&nbsp; &lt;runtime&gt;1h 37&lt;/runtime&gt;<br />&nbsp; &lt;rating&gt;7.6&lt;/rating&gt;<br />&nbsp; &lt;trailer&gt;http://www.youtube.com/watch?v=h-n3gclQ1ak&lt;/trailer&gt;<br />&nbsp; &lt;studio /&gt;<br />&nbsp; &lt;plot&gt;Bianca, a tenth grader has never gone on a date, but she isn't allowed to go out with boys until her older sister gets a boyfriend. The problem is, Kat rubs nearly everyone the wrong way. But Bianca and the guy she has her eye on, Joey, are eager, so Joey fixes Kat up with Patrick, a new kid in town just bitter enough for Kat.&lt;/plot&gt;<br />&nbsp; &lt;overview&gt;MPAA:PG-13 Rating:7.6 Bianca, a tenth grader has never gone on a date, but she isn't allowed to go out with boys until her older sister gets a boyfriend. The problem is, Kat rubs nearly everyone the wrong way. But Bianca and the guy she has her eye on, Joey, are eager, so Joey fixes Kat up with Patrick, a new kid in town just bitter enough for Kat.&lt;/overview&gt;<br />&nbsp; &lt;director&gt;Gil Junger&lt;/director&gt;<br />&nbsp; &lt;prevtitle&gt;10 Things I Hate About You.iso&lt;/prevtitle&gt;<br />&nbsp; &lt;prevgenre&gt;N/A&lt;/prevgenre&gt;<br />&nbsp; &lt;genre&gt;Comedy&lt;/genre&gt;<br />&nbsp; &lt;genre&gt;Romance&lt;/genre&gt;<br />&nbsp; &lt;genre&gt;Family&lt;/genre&gt;<br />&nbsp; &lt;actor&gt;<br />&nbsp;&nbsp;&nbsp; &lt;name&gt;Heath Ledger&lt;/name&gt;<br />&nbsp;&nbsp;&nbsp; &lt;role&gt;Patrick Verona&lt;/role&gt;<br />&nbsp; &lt;/actor&gt;<br />&nbsp; &lt;actor&gt;<br />&nbsp;&nbsp;&nbsp; &lt;name&gt;Julia Stiles&lt;/name&gt;<br />&nbsp;&nbsp;&nbsp; &lt;role&gt;Kat Stratford&lt;/role&gt;<br />&nbsp; &lt;/actor&gt;<br />&nbsp; &lt;actor&gt;<br />&nbsp;&nbsp;&nbsp; &lt;name&gt;Joseph Gordon-Levitt&lt;/name&gt;<br />&nbsp;&nbsp;&nbsp; &lt;role&gt;Cameron James&lt;/role&gt;<br />&nbsp; &lt;/actor&gt;<br />&nbsp; &lt;actor&gt;<br />&nbsp;&nbsp;&nbsp; &lt;name&gt;Larisa Oleynik&lt;/name&gt;<br />&nbsp;&nbsp;&nbsp; &lt;role&gt;Bianca Stratford&lt;/role&gt;<br />&nbsp; &lt;/actor&gt;<br />&nbsp; &lt;actor&gt;<br />&nbsp;&nbsp;&nbsp; &lt;name&gt;David Krumholtz&lt;/name&gt;<br />&nbsp;&nbsp;&nbsp; &lt;role&gt;Michael&lt;/role&gt;<br />&nbsp; &lt;/actor&gt;<br />&nbsp; &lt;actor&gt;<br />&nbsp;&nbsp;&nbsp; &lt;name&gt;Andrew Keegan&lt;/name&gt;<br />&nbsp;&nbsp;&nbsp; &lt;role&gt;Joey Donner&lt;/role&gt;<br />&nbsp; &lt;/actor&gt;<br />&nbsp; &lt;actor&gt;<br />&nbsp;&nbsp;&nbsp; &lt;name&gt;Susan May Pratt&lt;/name&gt;<br />&nbsp;&nbsp;&nbsp; &lt;role&gt;Mandella&lt;/role&gt;<br />&nbsp; &lt;/actor&gt;<br />&nbsp; &lt;actor&gt;<br />&nbsp;&nbsp;&nbsp; &lt;name&gt;Gabrielle Union&lt;/name&gt;<br />&nbsp;&nbsp;&nbsp; &lt;role&gt;Chastity&lt;/role&gt;<br />&nbsp; &lt;/actor&gt;<br />&nbsp; &lt;actor&gt;<br />&nbsp;&nbsp;&nbsp; &lt;name&gt;Larry Miller&lt;/name&gt;<br />&nbsp;&nbsp;&nbsp; &lt;role&gt;Walter Stratford&lt;/role&gt;<br />&nbsp; &lt;/actor&gt;<br />&nbsp; &lt;actor&gt;<br />&nbsp;&nbsp;&nbsp; &lt;name&gt;Daryl Mitchell&lt;/name&gt;<br />&nbsp;&nbsp;&nbsp; &lt;role&gt;Mr. Morgan&lt;/role&gt;<br />&nbsp; &lt;/actor&gt;<br />&nbsp; &lt;actor&gt;<br />&nbsp;&nbsp;&nbsp; &lt;name&gt;Allison Janney&lt;/name&gt;<br />&nbsp;&nbsp;&nbsp; &lt;role&gt;Ms. Perky&lt;/role&gt;<br />&nbsp; &lt;/actor&gt;<br />&nbsp; &lt;actor&gt;<br />&nbsp;&nbsp;&nbsp; &lt;name&gt;David Leisure&lt;/name&gt;<br />&nbsp;&nbsp;&nbsp; &lt;role&gt;Mr. Chapin&lt;/role&gt;<br />&nbsp; &lt;/actor&gt;<br />&nbsp; &lt;actor&gt;<br />&nbsp;&nbsp;&nbsp; &lt;name&gt;Kyle Cease&lt;/name&gt;<br />&nbsp;&nbsp;&nbsp; &lt;role&gt;Bogie Lowenstien&lt;/role&gt;<br />&nbsp; &lt;/actor&gt;<br />&nbsp; &lt;actor&gt;<br />&nbsp;&nbsp;&nbsp; &lt;name&gt;Greg Jackson&lt;/name&gt;<br />&nbsp;&nbsp;&nbsp; &lt;role&gt;Scruvy&lt;/role&gt;<br />&nbsp; &lt;/actor&gt;<br />&nbsp; &lt;url cache=\"tmdb-.xml\" function=\"GetTMDBThumbsById\" /&gt;<br />&nbsp; &lt;thumbnail&gt;http://cf2.imgobject.com/t/p/w92/qIMmuVvpDxN9r34E8GvseEJUMJF.jpg&lt;/thumbnail&gt;<br />&nbsp; &lt;thumbnail&gt;http://cf2.imgobject.com/t/p/w92/Kd5OkBc6GyUa1tIpxYUHLpyE2t.jpg&lt;/thumbnail&gt;<br />&nbsp; &lt;thumbnail&gt;http://cf2.imgobject.com/t/p/w92/oQXGX7oNnfhNA4BMxhWH5QpOOga.jpg&lt;/thumbnail&gt;<br />&nbsp; &lt;thumbnail&gt;http://cf2.imgobject.com/t/p/w92/wKSTwV0BpXbGDbpkNeBWLFVBSpv.jpg&lt;/thumbnail&gt;<br />&nbsp; &lt;thumbnail&gt;http://cf2.imgobject.com/t/p/w92/z1FzZvPu0RvVHX5iMvTAusRD2tj.jpg&lt;/thumbnail&gt;<br />&nbsp; &lt;thumbnail&gt;http://cf2.imgobject.com/t/p/w92/xHxScypmunNkTDdtAO0kBdwAZLd.jpg&lt;/thumbnail&gt;<br />&nbsp; &lt;thumbnail&gt;http://cf2.imgobject.com/t/p/w92/oTvgApjFjfoehHd5IIL2rjleNzp.jpg&lt;/thumbnail&gt;<br />&nbsp; &lt;thumbnail&gt;http://cf2.imgobject.com/t/p/w92/ik6cQsT2VXpUhQtOlxCqf9IOc74.jpg&lt;/thumbnail&gt;<br />&nbsp; &lt;thumbnail&gt;http://cf2.imgobject.com/t/p/w92/jlXMEcAYOvu7s0QnWKE9q4P4pmN.jpg&lt;/thumbnail&gt;<br />&nbsp; &lt;thumbnail&gt;http://cf2.imgobject.com/t/p/w92/oKksoH659PjbYfvGvTqJTUMiB6e.jpg&lt;/thumbnail&gt;<br />&nbsp; &lt;backdrop&gt;http://cf2.imgobject.com/t/p/w780/ds4P3jbSleMr9z9rAlZfDqRttKi.jpg&lt;/backdrop&gt;<br />&nbsp; &lt;backdrop&gt;http://cf2.imgobject.com/t/p/w780/oi5EvMTKxhUngCveced3dwx1ctF.jpg&lt;/backdrop&gt;<br />&nbsp; &lt;backdrop&gt;http://cf2.imgobject.com/t/p/w780/3hNUP7IyFDALQa0uQRCbTpRgTls.jpg&lt;/backdrop&gt;<br />&nbsp; &lt;backdrop&gt;http://cf2.imgobject.com/t/p/w780/193jMwS9FwiqLcE3QAbvCnrurPt.jpg&lt;/backdrop&gt;<br />&nbsp; &lt;backdrop&gt;http://cf2.imgobject.com/t/p/w780/jbRIqejlrHLRV69QlblKoVLl1l9.jpg&lt;/backdrop&gt;<br />&nbsp; &lt;backdrop&gt;http://cf2.imgobject.com/t/p/w780/447KkombuLAtLqKFPG7hQUav7Jh.jpg&lt;/backdrop&gt;<br />&nbsp; &lt;backdrop&gt;http://cf2.imgobject.com/t/p/w780/2bMUXpRc1BsGR6bIY5YpjYnsm7q.jpg&lt;/backdrop&gt;<br />&nbsp; &lt;backdrop&gt;http://cf2.imgobject.com/t/p/w780/84kuf5GTuHXQFMvkrppUVmDckt4.jpg&lt;/backdrop&gt;<br />&nbsp; &lt;backdrop&gt;http://cf2.imgobject.com/t/p/w780/mrpcgmZfVyLxxUhzTvA04rZ7NxN.jpg&lt;/backdrop&gt;<br />&nbsp; &lt;backdrop&gt;http://cf2.imgobject.com/t/p/w780/67csH53geTOzie3AWBFw7fcyyQ.jpg&lt;/backdrop&gt;<br />&nbsp; &lt;backdrop&gt;http://cf2.imgobject.com/t/p/w780/p1b7hhhH95qnXzDLdXkUbLPPgMW.jpg&lt;/backdrop&gt;<br />&lt;/details&gt;</p>",
    "PostedDate": "2012-05-11T13:52:28.85-07:00",
    "UserRole": null,
    "MarkedAsAnswerDate": null
  }
]