[
  {
    "Id": "911065",
    "ThreadId": "395170",
    "Html": "\r\n<p>Hi!</p>\r\n<p>Feature request:</p>\r\n<p>Option -&gt; &quot;handle all media as Movies&quot;</p>\r\n<p>OR</p>\r\n<p>Add &quot;h264&quot; to a movie-whitelist (so it is not recognized as a series file)</p>\r\n<p>&nbsp;</p>\r\n<p>This is a great tool!, I just got my WD Live gen3 and starting to modify my collection for the mediaview...</p>\r\n<p>One problem i encountered is that all my files that containing a &quot;h264&quot; got an error massage that it is not found in the library! I guess the program things it is a series (it show season:2 Episode: 64 )</p>\r\n<p>If i rename the file to &quot;...h2 64...&quot; the movie is recognized and the picture and info is downloaded correctly.</p>\r\n<p>So, please add an option to handle all files as Movies or add the string to a movie positive list.</p>\r\n<p>&nbsp;</p>\r\n<p>bye</p>\r\n<p>&nbsp;</p>\r\n<p>EDIT: movies like &quot;0815&quot; are also recognized as series... :(</p>\r\n<p>James Bond 007 is recognized as season:0 Episode 07</p>\r\n<p>&nbsp;</p>\r\n<p>I think the episode recognition should only handle the file as series if there is a specific marker for it, like 1x11, 1e11, etc.</p>\r\n",
    "PostedDate": "2012-09-11T10:19:57.547-07:00",
    "UserRole": null,
    "MarkedAsAnswerDate": null
  },
  {
    "Id": "912959",
    "ThreadId": "395170",
    "Html": "<p>The app already has the ability to deal with this.&nbsp; All you need to do is go to the \"Options\" tab and select \"Remove Words\" then simply add h264 to the words to be removed.</p>",
    "PostedDate": "2012-09-14T22:56:09.783-07:00",
    "UserRole": null,
    "MarkedAsAnswerDate": null
  },
  {
    "Id": "912987",
    "ThreadId": "395170",
    "Html": "<p>uhm ... right.</p>\r\n<p>I didnt tried it before because it is called \"Remove Words\" and hence will change the filename by REMOVING the word from the file name.</p>\r\n<p>But this function does simply IGNORE the words.... shouldnt it then be named \"Ignore Words\" then? =)</p>\r\n<p>&nbsp;</p>\r\n<p>thx!</p>",
    "PostedDate": "2012-09-15T01:44:08.477-07:00",
    "UserRole": null,
    "MarkedAsAnswerDate": null
  }
]