[
  {
    "Id": "1130479",
    "ThreadId": "471573",
    "Html": "<a href=\"http://therenamer.com/\" rel=\"nofollow\">http://therenamer.com/</a>\r<br />\nI use this program which is free but please make a donation if you find it useful.\r<br />\n<br />\nYou can Automatically rename and organize your TV shows and Movies. Also moves them to your Media Library!\r<br />\n TV Series Episodes and Movie File Renamer works with  IMDb.com, TV.com, theTVDB.com, EPGUIDES.com and MMA (Mixed Martial Arts) from WikiPedia.\r<br />\n<br />\n theRenamer renames your TV or Movie files into a neat and orderly format.....and adds in the TV show episodes titles!\r<br />\n<br />\nFrom this:   [vd-mux-ita]The.Unit.1x01.Piromane.ITA.DVDMux.[colombo-bt.org].avi\r<br />\nTo this:       The Unit.1x01.First Responders.avi\r<br />\n ......... in just 1 simple Drag and Drop motion.<br />\n",
    "PostedDate": "2013-11-30T02:16:41.183-08:00",
    "UserRole": null,
    "MarkedAsAnswerDate": null
  }
]