[
  {
    "Id": "1192752",
    "ThreadId": "522147",
    "Html": "Just wondering if it's possible to allow formatting changes that allow actor viewing in SMP.\r<br />\nSMP and HUB will display:<br />\n<pre><code>&lt;actor&gt;actor1 real name/actor2 real name/actor3 real name&lt;/actor&gt;</code></pre>\n\nHubGen only outputs :<br />\n<pre><code>&lt;actor&gt;\n    &lt;name&gt;real name&lt;/name&gt;\n    &lt;role&gt;TV name&lt;/role&gt;\n  &lt;/actor&gt;</code></pre>\n\nAs of now if viewing the HubGen output XML on SMP, Actors area is blank because it cannot read the formatting:<br />\n<pre><code>&lt;actor&gt;\n    &lt;name&gt;real name&lt;/name&gt;\n    &lt;role&gt;TV name&lt;/role&gt;\n  &lt;/actor&gt;</code></pre>\n\nI know this is a tool for Hub but maybe others like me have both units ?<br />\n",
    "PostedDate": "2014-01-22T20:57:27.1-08:00",
    "UserRole": null,
    "MarkedAsAnswerDate": null
  },
  {
    "Id": "1208181",
    "ThreadId": "522147",
    "Html": "I will try to add this functionality to the next release, I'm sorry wd decided to make this a pain for people, but I'll see about adding this to the xml template out and allowing you to pick the type you want from settings.<br />\n",
    "PostedDate": "2014-02-13T18:51:16.13-08:00",
    "UserRole": null,
    "MarkedAsAnswerDate": null
  }
]