[
  {
    "Id": "1319878",
    "ThreadId": "571492",
    "Html": "I have used this app to get all the metadata. All files seems to be in the right location but when i try to stream it shows only cover art. All other details are shown as NA and no description of the movie is also available. I am using it thru twonky server it that helps.<br />\n",
    "PostedDate": "2014-11-06T22:07:16.657-08:00",
    "UserRole": null,
    "MarkedAsAnswerDate": null
  }
]