[
  {
    "Id": "1341821",
    "ThreadId": "577699",
    "Html": "It would be nice if WDTVHubGen also downloads missing subtitle from example <a href=\"http://www.opensubtitles.org\" rel=\"nofollow\">http://www.opensubtitles.org</a><br />\n",
    "PostedDate": "2015-01-14T07:52:35.027-08:00",
    "UserRole": null,
    "MarkedAsAnswerDate": null
  }
]