[
  {
    "Id": "1353753",
    "ThreadId": "581303",
    "Html": "Hi, have been using WDTVHubgen for some time and have recently noticed that with MP4 files there is .mp4 added after the movie name and TV series name on the listings in WDTV on the TV.\r<br />\n<br />\nThis suffix does not appear with <em>.avi and </em>.mkv files, only *.mp4!\r<br />\n<br />\nCan anybody throw any light on this please.\r<br />\n<br />\nProbably a setting in Options on Hubgen.\r<br />\n<br />\nI am using current release of WDTVHubgen v2.3.1.1\r<br />\n<br />\nMany thanks<br />\n",
    "PostedDate": "2015-02-18T08:53:24.42-08:00",
    "UserRole": null,
    "MarkedAsAnswerDate": null
  }
]