{
  "WorkItem": {
    "AffectedComponent": {
      "Name": "",
      "DisplayName": ""
    },
    "ClosedComment": "",
    "ClosedDate": null,
    "CommentCount": 0,
    "Custom": null,
    "Description": "When I try to retrieve information about \"American Dad!\" the program always give an error.",
    "LastUpdatedDate": "2015-10-10T01:12:59.26-07:00",
    "PlannedForRelease": "",
    "ReleaseVisibleToPublic": false,
    "Priority": {
      "Name": "Unassigned",
      "Severity": 0,
      "Id": 0
    },
    "ProjectName": "wdtvhubgen",
    "ReportedDate": "2015-04-01T04:48:53.75-07:00",
    "Status": {
      "Name": "Proposed",
      "Id": 1
    },
    "ReasonClosed": {
      "Name": "Unassigned"
    },
    "Summary": "There is a problem with \"American Dad!\"",
    "Type": {
      "Name": "Unassigned",
      "Id": 5
    },
    "VoteCount": 1,
    "Id": 3168
  },
  "FileAttachments": [
    {
      "FileId": 1298,
      "FileName": "Screenshot_1.png",
      "DownloadUrl": ".\\1298"
    }
  ],
  "Comments": [
    {
      "Message": "It's been a while since your post, so you may already know this, but American Dad! episode numbering is totally different between tvrage.com and thetvdb.com.  Since this app uses thetvdb.com to get it's info, make sure that you're episodes list matches:\nhttp://www.thetvdb.com/?tab=seasonall&id=73141&lid=7\nThis is the ONLY show that I've come across that I've had this issue with, but it took me a bit to figure out what the heck was going on with this one.\nNOTE:  If you've already used WDTVHubGen to rename some of the shows, you're going to want to undo those renames!",
      "PostedDate": "2015-10-10T01:12:59.26-07:00",
      "Id": -2147483648
    }
  ]
}