{
  "WorkItem": {
    "AffectedComponent": {
      "Name": "",
      "DisplayName": ""
    },
    "ClosedComment": "",
    "ClosedDate": null,
    "CommentCount": 0,
    "Custom": null,
    "Description": "I want to load Movie Information and get 2 error messages.\n \nIf I set the regional settings to en-us everything works fine. But I am from Austria and it would be nice if I could work with Austrian regional settings. System Language is en-us.\n \nIt's not exactly the same error message like in the issue 2390 (http://wdtvhubgen.codeplex.com/workitem/2390), but it's regarding to an incorrect input format too.\n \nEnvironment: Windows 8 Enterprise x64 Evaluation\n \nInfo: On Windows 7 Ent. x64 every function worked like a charm.",
    "LastUpdatedDate": "2013-08-29T22:26:33.443-07:00",
    "PlannedForRelease": "",
    "ReleaseVisibleToPublic": false,
    "Priority": {
      "Name": "Low",
      "Severity": 50,
      "Id": 1
    },
    "ProjectName": "wdtvhubgen",
    "ReportedDate": "2012-09-08T16:29:41.697-07:00",
    "Status": {
      "Name": "Proposed",
      "Id": 1
    },
    "ReasonClosed": {
      "Name": "Unassigned"
    },
    "Summary": "Error due regional settings issue",
    "Type": {
      "Name": "Issue",
      "Id": 3
    },
    "VoteCount": 2,
    "Id": 2658
  },
  "FileAttachments": [
    {
      "FileId": 127,
      "FileName": "Load_Info_Error_Message.jpg",
      "DownloadUrl": ".\\127"
    },
    {
      "FileId": 128,
      "FileName": "Load_Info_Error_Message_2.jpg",
      "DownloadUrl": ".\\128"
    }
  ],
  "Comments": [
    {
      "Message": "2nd Error Message",
      "PostedDate": "2012-09-08T16:30:11.83-07:00",
      "Id": -2147483648
    },
    {
      "Message": "",
      "PostedDate": "2013-02-21T16:49:21.21-08:00",
      "Id": -2147483648
    },
    {
      "Message": "",
      "PostedDate": "2013-08-29T22:26:33.443-07:00",
      "Id": -2147483648
    }
  ]
}