{
  "WorkItem": {
    "AffectedComponent": {
      "Name": "",
      "DisplayName": ""
    },
    "ClosedComment": "",
    "ClosedDate": null,
    "CommentCount": 0,
    "Custom": null,
    "Description": "(Likely related to the last bug - this one only shows when the file name is only numbers as in 2001.mkv and 2010.mvk)\n\nError Message: startIndex must be less than length of string.\nParameter name: startIndex\nInner Exception: No Inner Exception\nStack Trace:   at System.String.Remove(Int32 startindex)\n  at WDTVHubGen.frm.MainForm.LoadMovieDetails(VideoItem item)",
    "LastUpdatedDate": "2014-07-26T19:51:49.07-07:00",
    "PlannedForRelease": "",
    "ReleaseVisibleToPublic": false,
    "Priority": {
      "Name": "Unassigned",
      "Severity": 0,
      "Id": 0
    },
    "ProjectName": "wdtvhubgen",
    "ReportedDate": "2014-01-31T15:05:22.987-08:00",
    "Status": {
      "Name": "Proposed",
      "Id": 1
    },
    "ReasonClosed": {
      "Name": "Unassigned"
    },
    "Summary": "Error in WDTVHubGen (v2.3.1.1) at LoadMovieDetails",
    "Type": {
      "Name": "Unassigned",
      "Id": 5
    },
    "VoteCount": 3,
    "Id": 2991
  },
  "FileAttachments": [],
  "Comments": [
    {
      "Message": "(More Details after that initial error)\r\n\r\nError Message: Search must be supplied\nInner Exception: No Inner Exception\nStack Trace:   at WatTmdb.V3.Tmdb.SearchMovie(String query, Int32\npage, String language, Nullable`1 includeAdult, Nullable`1 year)\n at WDTVHubGen.frmMainForm.LoadMovieDetails(VideoItem item)",
      "PostedDate": "2014-01-31T15:09:14.007-08:00",
      "Id": -2147483648
    },
    {
      "Message": "",
      "PostedDate": "2014-01-31T15:09:37.643-08:00",
      "Id": -2147483648
    },
    {
      "Message": "Using manual lookup on those file produces an error - but you can skip to entering in the details such as \"2001: A Space Odyssey\" or \"2010: The Year We Make Contact\" and it scrapes the data just fine then.",
      "PostedDate": "2014-01-31T15:17:02.137-08:00",
      "Id": -2147483648
    },
    {
      "Message": "",
      "PostedDate": "2014-03-25T22:55:27.233-07:00",
      "Id": -2147483648
    },
    {
      "Message": "For me this appears when in the title of the movie the date is at the end and preceded by a space hyphen space or has no hyphen. ",
      "PostedDate": "2014-03-25T22:59:04.7-07:00",
      "Id": -2147483648
    },
    {
      "Message": "",
      "PostedDate": "2014-07-26T19:51:49.07-07:00",
      "Id": -2147483648
    }
  ]
}