{
  "WorkItem": {
    "AffectedComponent": {
      "Name": "",
      "DisplayName": ""
    },
    "ClosedComment": "",
    "ClosedDate": null,
    "CommentCount": 0,
    "Custom": null,
    "Description": "Seems like the program now thinks that the ColumnWidths.xml should be located in the windows\\system32 directory when it is actually located in the program directory.  I tried moving a copy over to windows\\system32 and setting permissions but the program still balks.\n\nSee the end of this message for details on invoking \njust-in-time (JIT) debugging instead of this dialog box.\n\n************** Exception Text **************\nSystem.UnauthorizedAccessException: Access to the path 'C:\\Windows\\system32\\ColumnWidths.xml' is denied.\n   at System.IO.__Error.WinIOError(Int32 errorCode, String maybeFullPath)\n   at System.IO.FileStream.Init(String path, FileMode mode, FileAccess access, Int32 rights, Boolean useRights, FileShare share, Int32 bufferSize, FileOptions options, SECURITY_ATTRIBUTES secAttrs, String msgPath, Boolean bFromProxy, Boolean useLongPath, Boolean checkHost)\n   at System.IO.FileStream..ctor(String path, FileMode mode, FileAccess access, FileShare share, Int32 bufferSize, FileOptions options, String msgPath, Boolean bFromProxy)\n   at System.IO.FileStream..ctor(String path, FileMode mode, FileAccess access, FileShare share)\n   at WDTVHubGen.Util.Utilities.SerializeObject(List`1 list, String fileName) in c:\\Users\\Jeff\\Dropbox\\WDTVHubGen\\WDTVHubGen\\WDTVHubGen.Util\\Utilities.cs:line 33\n   at WDTVHubGen.frmMainForm.objectListViewMovie_ColumnWidthChanged(Object sender, ColumnWidthChangedEventArgs e)\n   at System.Windows.Forms.ColumnWidthChangedEventHandler.Invoke(Object sender, ColumnWidthChangedEventArgs e)\n   at System.Windows.Forms.ListView.WmNotify(Message& m)\n   at System.Windows.Forms.ListView.WndProc(Message& m)\n   at System.Windows.Forms.NativeWindow.Callback(IntPtr hWnd, Int32 msg, IntPtr wparam, IntPtr lparam)\n\n\n************** Loaded Assemblies **************\nmscorlib\n    Assembly Version: 4.0.0.0\n    Win32 Version: 4.0.30319.34014 built by: FX45W81RTMGDR\n    CodeBase: file:///C:/Windows/Microsoft.NET/Framework64/v4.0.30319/mscorlib.dll\n----------------------------------------\nWDTVHubGen\n    Assembly Version: 2.3.1.1\n    Win32 Version: 2.3.1.1\n    CodeBase: file:///C:/WDTVHubGen/WDTVHubGen.exe\n----------------------------------------\nSystem.Windows.Forms\n    Assembly Version: 4.0.0.0\n    Win32 Version: 4.0.30319.33440 built by: FX45W81RTMREL\n    CodeBase: file:///C:/Windows/Microsoft.Net/assembly/GAC_MSIL/System.Windows.Forms/v4.0_4.0.0.0__b77a5c561934e089/System.Windows.Forms.dll\n----------------------------------------\nSystem.Drawing\n    Assembly Version: 4.0.0.0\n    Win32 Version: 4.0.30319.33440 built by: FX45W81RTMREL\n    CodeBase: file:///C:/Windows/Microsoft.Net/assembly/GAC_MSIL/System.Drawing/v4.0_4.0.0.0__b03f5f7f11d50a3a/System.Drawing.dll\n----------------------------------------\nSystem\n    Assembly Version: 4.0.0.0\n    Win32 Version: 4.0.30319.34003 built by: FX45W81RTMGDR\n    CodeBase: file:///C:/Windows/Microsoft.Net/assembly/GAC_MSIL/System/v4.0_4.0.0.0__b77a5c561934e089/System.dll\n----------------------------------------\nlog4net\n    Assembly Version: 1.2.10.0\n    Win32 Version: 1.2.10.0\n    CodeBase: file:///C:/WDTVHubGen/log4net.DLL\n----------------------------------------\nSystem.Configuration\n    Assembly Version: 4.0.0.0\n    Win32 Version: 4.0.30319.33440 built by: FX45W81RTMREL\n    CodeBase: file:///C:/Windows/Microsoft.Net/assembly/GAC_MSIL/System.Configuration/v4.0_4.0.0.0__b03f5f7f11d50a3a/System.Configuration.dll\n----------------------------------------\nSystem.Xml\n    Assembly Version: 4.0.0.0\n    Win32 Version: 4.0.30319.33440 built by: FX45W81RTMREL\n    CodeBase: file:///C:/Windows/Microsoft.Net/assembly/GAC_MSIL/System.Xml/v4.0_4.0.0.0__b77a5c561934e089/System.Xml.dll\n----------------------------------------\nWDTVHubGen.Base\n    Assembly Version: 1.0.0.0\n    Win32 Version: 1.0.0.0\n    CodeBase: file:///C:/WDTVHubGen/WDTVHubGen.Base.DLL\n----------------------------------------\nTvdbLib\n    Assembly Version: 0.8.8.0\n    Win32 Version: 0.8.0.0\n    CodeBase: file:///C:/WDTVHubGen/TvdbLib.DLL\n----------------------------------------\nDevComponents.DotNetBar2\n    Assembly Version: 7.4.0.4\n    Win32 Version: 7.4.0.4\n    CodeBase: file:///C:/WDTVHubGen/DevComponents.DotNetBar2.DLL\n----------------------------------------\nObjectListView\n    Assembly Version: 2.5.1.36516\n    Win32 Version: 2.5.1.0\n    CodeBase: file:///C:/WDTVHubGen/ObjectListView.DLL\n----------------------------------------\nPropertyGridEx\n    Assembly Version: 1.0.0.0\n    Win32 Version: 1.0.0.0\n    CodeBase: file:///C:/WDTVHubGen/PropertyGridEx.DLL\n----------------------------------------\nAccessibility\n    Assembly Version: 4.0.0.0\n    Win32 Version: 4.0.30319.33440 built by: FX45W81RTMREL\n    CodeBase: file:///C:/Windows/Microsoft.Net/assembly/GAC_MSIL/Accessibility/v4.0_4.0.0.0__b03f5f7f11d50a3a/Accessibility.dll\n----------------------------------------\nWDTVHubGen.Util\n    Assembly Version: 1.0.0.0\n    Win32 Version: 1.0.0.0\n    CodeBase: file:///C:/WDTVHubGen/WDTVHubGen.Util.DLL\n----------------------------------------\nMicrosoft.GeneratedCode\n    Assembly Version: 1.0.0.0\n    Win32 Version: 4.0.30319.33440 built by: FX45W81RTMREL\n    CodeBase: file:///C:/Windows/Microsoft.Net/assembly/GAC_MSIL/System.Xml/v4.0_4.0.0.0__b77a5c561934e089/System.Xml.dll\n----------------------------------------\nSystem.Design\n    Assembly Version: 4.0.0.0\n    Win32 Version: 4.0.30319.33440 built by: FX45W81RTMREL\n    CodeBase: file:///C:/Windows/Microsoft.Net/assembly/GAC_MSIL/System.Design/v4.0_4.0.0.0__b03f5f7f11d50a3a/System.Design.dll\n----------------------------------------\nSystem.Core\n    Assembly Version: 4.0.0.0\n    Win32 Version: 4.0.30319.33440 built by: FX45W81RTMREL\n    CodeBase: file:///C:/Windows/Microsoft.Net/assembly/GAC_MSIL/System.Core/v4.0_4.0.0.0__b77a5c561934e089/System.Core.dll\n----------------------------------------\nMicrosoft.VisualBasic\n    Assembly Version: 10.0.0.0\n    Win32 Version: 12.0.20806.33440 built by: FX45W81RTMREL\n    CodeBase: file:///C:/Windows/Microsoft.Net/assembly/GAC_MSIL/Microsoft.VisualBasic/v4.0_10.0.0.0__b03f5f7f11d50a3a/Microsoft.VisualBasic.dll\n----------------------------------------\nSystem.Data\n    Assembly Version: 4.0.0.0\n    Win32 Version: 4.0.30319.33440 built by: FX45W81RTMREL\n    CodeBase: file:///C:/Windows/Microsoft.Net/assembly/GAC_64/System.Data/v4.0_4.0.0.0__b77a5c561934e089/System.Data.dll\n----------------------------------------\nMicrosoft.GeneratedCode\n    Assembly Version: 1.0.0.0\n    Win32 Version: 4.0.30319.33440 built by: FX45W81RTMREL\n    CodeBase: file:///C:/Windows/Microsoft.Net/assembly/GAC_MSIL/System.Xml/v4.0_4.0.0.0__b77a5c561934e089/System.Xml.dll\n----------------------------------------\n\n************** JIT Debugging **************\nTo enable just-in-time (JIT) debugging, the .config file for this\napplication or computer (machine.config) must have the\njitDebugging value set in the system.windows.forms section.\nThe application must also be compiled with debugging\nenabled.\n\nFor example:\n\n<configuration>\n    <system.windows.forms jitDebugging=\"true\" />\n</configuration>\n\nWhen JIT debugging is enabled, any unhandled exception\nwill be sent to the JIT debugger registered on the computer\nrather than be handled by this dialog box.",
    "LastUpdatedDate": "2014-07-26T19:50:58.77-07:00",
    "PlannedForRelease": "",
    "ReleaseVisibleToPublic": false,
    "Priority": {
      "Name": "Unassigned",
      "Severity": 0,
      "Id": 0
    },
    "ProjectName": "wdtvhubgen",
    "ReportedDate": "2014-06-06T04:02:37.793-07:00",
    "Status": {
      "Name": "Proposed",
      "Id": 1
    },
    "ReasonClosed": {
      "Name": "Unassigned"
    },
    "Summary": "Unhandled exception path to ColumnWidths.xml",
    "Type": {
      "Name": "Unassigned",
      "Id": 5
    },
    "VoteCount": 2,
    "Id": 3052
  },
  "FileAttachments": [],
  "Comments": [
    {
      "Message": "it is designed to look for the xml files in the same directory as the program is \"running\" not sure why it would suddenly think it was running in the system32 directory.  \r\n\r\nif you delete the columnwidths.xml file does this problem reoccur?",
      "PostedDate": "2014-06-23T06:17:02.72-07:00",
      "Id": -2147483648
    },
    {
      "Message": "Yes.  I also tried moving the file.  I did an uninstall, wiped the directory clean and reinstalled.  Now I can get it to work *IF* it only finds 1 match as none of the results will show.  I have to click through the error about 15 times and it will rename and tag the file.",
      "PostedDate": "2014-06-23T07:00:53.25-07:00",
      "Id": -2147483648
    },
    {
      "Message": "I can't replicate the error, can you install in a different directory, maybe one under your \"documents\" or some other well know location?",
      "PostedDate": "2014-06-23T10:02:59.347-07:00",
      "Id": -2147483648
    },
    {
      "Message": "",
      "PostedDate": "2014-07-26T19:50:58.77-07:00",
      "Id": -2147483648
    }
  ]
}